{
    "global" : {
        "async_tasks": [
            {
                "method" : "defaultTask",
                "class" : "main"
            },

            {
                "method" : "secondaryTask",
                "class" : "main"
            }
        ],
        "web" : {
            
                    "route": {
                        "name" : "api",
                        "wrapper":"validator"
                    }
            
                }
    }
    
}